{
    "BetterNsfwTag": true,
    "BetterRoleColors": true,
    "BlurNSFW": true,
    "CallTimeCounter": true,
    "CharCounter": true,
    "CompleteTimestamps": true,
    "Double Click To Edit": true,
    "Embed More Images": true,
    "HideDisabledEmojis": true,
    "PreviewMessage": true,
    "ShowConnections": true,
    "WhoReacted": false,
    "ZeresPluginLibrary": false,
    "BDFDB": true,
    "ShowHiddenChannels": false
}